{"paging":{"page":1,"total":4968,"page_size":20,"pages":249},"loans":[{"id":1959579,"name":"Laura Cristina","description":{"languages":["en"]},"status":"fundraising","funded_amount":0,"basket_amount":0,"image":{"id":3483316,"template_id":1},"activity":"Personal Products Sales","sector":"Retail","use":"to buy more women\u2019s clothing and fast food supplies to increase her sales.","location":{"country_code":"CO","country":"Colombia","town":"Medell\u00edn","geo":{"level":"town","pairs":"6.244203 -75.581212","type":"point"}},"partner_id":177,"posted_date":"2020-04-16T03:00:09Z","planned_expiration_date":"2020-05-31T03:00:09Z","loan_amount":650,"borrower_count":1,"lender_count":0,"bonus_credit_eligibility":true,"tags":[]},{"id":1959546,"name":"Berlin","description":{"languages":["fr","en"]},"status":"fundraising","funded_amount":0,"basket_amount":0,"image":{"id":3482481,"template_id":1},"activity":"Laundry","sector":"Services","use":"to increase his stock of wood, hangers and plastics.","location":{"country_code":"HT","country":"Haiti","town":"Delmas","geo":{"level":"town","pairs":"18.543361 -72.305212","type":"point"}},"partner_id":442,"posted_date":"2020-04-16T02:20:09Z","planned_expiration_date":"2020-05-31T02:20:09Z","loan_amount":425,"borrower_count":1,"lender_count":0,"bonus_credit_eligibility":false,"tags":[]},{"id":1959588,"name":"Siluom","description":{"languages":["en"]},"status":"fundraising","funded_amount":0,"basket_amount":0,"image":{"id":3483619,"template_id":1},"activity":"Food Market","sector":"Food","themes":["Underfunded Areas"],"use":"to restock her grocery stand.","location":{"country_code":"KH","country":"Cambodia","town":"Banteay Meanchey","geo":{"level":"town","pairs":"13.75 103","type":"point"}},"partner_id":499,"posted_date":"2020-04-16T02:00:11Z","planned_expiration_date":"2020-05-31T02:00:10Z","loan_amount":625,"borrower_count":1,"lender_count":0,"bonus_credit_eligibility":true,"tags":[]},{"id":1959564,"name":"Lina Paola","description":{"languages":["en"]},"status":"fundraising","funded_amount":0,"basket_amount":0,"image":{"id":3482961,"template_id":1},"activity":"Food Production\/Sales","sector":"Food","use":"to buy supplies to prepare more tamales to sell so she can have a better income.","location":{"country_code":"CO","country":"Colombia","town":"Salda\u00f1a","geo":{"level":"town","pairs":"3.928613 -75.017481","type":"point"}},"partner_id":177,"posted_date":"2020-04-16T02:00:09Z","planned_expiration_date":"2020-05-31T02:00:09Z","loan_amount":525,"borrower_count":1,"lender_count":0,"bonus_credit_eligibility":false,"tags":[]},{"id":1959580,"name":"Carmen Patricia","description":{"languages":["en"]},"status":"fundraising","funded_amount":0,"basket_amount":0,"image":{"id":3483317,"template_id":1},"activity":"Services","sector":"Services","use":"to buy vehicle parts to fix her car, which she needs to visit her clients.","location":{"country_code":"CO","country":"Colombia","town":"Ibague","geo":{"level":"country","pairs":"4 -72","type":"point"}},"partner_id":177,"posted_date":"2020-04-16T02:00:09Z","planned_expiration_date":"2020-05-31T02:00:09Z","loan_amount":525,"borrower_count":1,"lender_count":0,"bonus_credit_eligibility":true,"tags":[]},{"id":1959292,"name":"Yoxaja Sector Campo Group","description":{"languages":["es","en"]},"status":"fundraising","funded_amount":0,"basket_amount":0,"image":{"id":3162704,"template_id":1},"activity":"Clothing Sales","sector":"Clothing","use":"buy and sell traditional clothing like embroidered shirts, corsets and handwoven skirts.","location":{"country_code":"GT","country":"Guatemala","town":"Suchitep\u00e9quez","geo":{"level":"town","pairs":"14.421598 -91.404825","type":"point"}},"partner_id":246,"posted_date":"2020-04-16T01:50:08Z","planned_expiration_date":"2020-05-31T01:50:08Z","loan_amount":2025,"borrower_count":3,"lender_count":0,"bonus_credit_eligibility":false,"tags":[]},{"id":1959298,"name":"Alexis","description":{"languages":["es","en"]},"status":"fundraising","funded_amount":0,"basket_amount":0,"image":{"id":3478700,"template_id":1},"activity":"Furniture Making","sector":"Manufacturing","use":"to buy natural wood for making furniture.","location":{"country_code":"CO","country":"Colombia","town":"Medell\u00edn","geo":{"level":"town","pairs":"6.244203 -75.581212","type":"point"}},"partner_id":177,"posted_date":"2020-04-16T01:40:09Z","planned_expiration_date":"2020-05-31T01:40:09Z","loan_amount":575,"borrower_count":1,"lender_count":0,"bonus_credit_eligibility":true,"tags":[{"name":"volunteer_like","id":"2"}]},{"id":1959578,"name":"Paola Andrea","description":{"languages":["en"]},"status":"fundraising","funded_amount":0,"basket_amount":0,"image":{"id":3483273,"template_id":1},"activity":"Restaurant","sector":"Food","use":"to buy a freezer, a grill, cocktail equipment, and supplies to prepare more food to increase her sales.","location":{"country_code":"CO","country":"Colombia","town":"Medell\u00edn","geo":{"level":"town","pairs":"6.244203 -75.581212","type":"point"}},"partner_id":177,"posted_date":"2020-04-16T01:40:09Z","planned_expiration_date":"2020-05-31T01:40:09Z","loan_amount":800,"borrower_count":1,"lender_count":0,"bonus_credit_eligibility":true,"tags":[]},{"id":1959295,"name":"Robinson","description":{"languages":["es","en"]},"status":"fundraising","funded_amount":0,"basket_amount":0,"image":{"id":3478683,"template_id":1},"activity":"Agriculture","sector":"Agriculture","themes":["Rural Exclusion"],"use":"to buy manure and fertilizer for their coffee crop.","location":{"country_code":"CO","country":"Colombia","town":"Sabanalarga","geo":{"level":"town","pairs":"10.632409 -74.920163","type":"point"}},"partner_id":177,"posted_date":"2020-04-16T01:30:10Z","planned_expiration_date":"2020-05-31T01:30:10Z","loan_amount":275,"borrower_count":1,"lender_count":0,"bonus_credit_eligibility":true,"tags":[]},{"id":1959297,"name":"Alfonso","description":{"languages":["es","en"]},"status":"fundraising","funded_amount":0,"basket_amount":0,"image":{"id":3478699,"template_id":1},"activity":"Agriculture","sector":"Agriculture","themes":["Rural Exclusion"],"use":"to buy supplies for maintaining the terrain and cleaning their crops to continue with their activities.","location":{"country_code":"CO","country":"Colombia","town":"Caparrapi","geo":{"level":"town","pairs":"5.345645 -74.49081","type":"point"}},"partner_id":177,"posted_date":"2020-04-16T01:30:10Z","planned_expiration_date":"2020-05-31T01:30:10Z","loan_amount":275,"borrower_count":1,"lender_count":0,"bonus_credit_eligibility":true,"tags":[]},{"id":1959288,"name":"Patzulin 3 Group","description":{"languages":["es","en"]},"status":"fundraising","funded_amount":25,"basket_amount":0,"image":{"id":3478558,"template_id":1},"activity":"Agriculture","sector":"Agriculture","use":"to purchase agricultural inputs for the maintenance of his crop.","location":{"country_code":"GT","country":"Guatemala","town":"Suchitep\u00e9quez","geo":{"level":"town","pairs":"14.421598 -91.404825","type":"point"}},"partner_id":246,"posted_date":"2020-04-16T01:20:10Z","planned_expiration_date":"2020-05-31T01:20:10Z","loan_amount":2925,"borrower_count":6,"lender_count":1,"bonus_credit_eligibility":false,"tags":[]},{"id":1959296,"name":"Yotagri Eloina","description":{"languages":["es","en"]},"status":"fundraising","funded_amount":0,"basket_amount":0,"image":{"id":3478698,"template_id":1},"activity":"Agriculture","sector":"Agriculture","themes":["Rural Exclusion"],"use":"to buy manure and fertilizer to support their coffee crop.","location":{"country_code":"CO","country":"Colombia","town":"Sabanalarga","geo":{"level":"town","pairs":"10.632409 -74.920163","type":"point"}},"partner_id":177,"posted_date":"2020-04-16T01:20:10Z","planned_expiration_date":"2020-05-31T01:20:10Z","loan_amount":400,"borrower_count":1,"lender_count":0,"bonus_credit_eligibility":true,"tags":[]},{"id":1959278,"name":"Pablo Arturo","description":{"languages":["es","en"]},"status":"fundraising","funded_amount":0,"basket_amount":0,"image":{"id":3478401,"template_id":1},"activity":"Retail","sector":"Retail","use":"to pay for legal documents and buy supplies such as insoles, glues, accessories, and molds, among other items.","location":{"country_code":"CO","country":"Colombia","town":"Medell\u00edn","geo":{"level":"town","pairs":"6.244203 -75.581212","type":"point"}},"partner_id":177,"posted_date":"2020-04-16T00:50:09Z","planned_expiration_date":"2020-05-31T00:50:09Z","loan_amount":275,"borrower_count":1,"lender_count":0,"bonus_credit_eligibility":true,"tags":[]},{"id":1959287,"name":"Jazmina Lourdes","description":{"languages":["es","en"]},"status":"fundraising","funded_amount":0,"basket_amount":0,"image":{"id":3478555,"template_id":1},"activity":"Sewing","sector":"Services","themes":["Vulnerable Groups"],"use":"to buy new sewing machines.","location":{"country_code":"CR","country":"Costa Rica","town":"San Jos\u00e9","geo":{"level":"town","pairs":"9.928069 -84.090725","type":"point"}},"partner_id":176,"posted_date":"2020-04-16T00:50:08Z","planned_expiration_date":"2020-05-31T00:50:08Z","loan_amount":1000,"borrower_count":1,"lender_count":0,"bonus_credit_eligibility":true,"tags":[{"name":"volunteer_pick","id":"1"},{"name":"volunteer_like","id":"2"}]},{"id":1959575,"name":"Luis Alberto","description":{"languages":["en"]},"status":"fundraising","funded_amount":0,"basket_amount":0,"image":{"id":3483176,"template_id":1},"activity":"Farming","sector":"Agriculture","themes":["Rural Exclusion"],"use":"to buy fertilizer to improve his coffee production.","location":{"country_code":"CO","country":"Colombia","town":"Sabanalarga","geo":{"level":"town","pairs":"10.632409 -74.920163","type":"point"}},"partner_id":177,"posted_date":"2020-04-16T00:00:09Z","planned_expiration_date":"2020-05-31T00:00:09Z","loan_amount":800,"borrower_count":1,"lender_count":0,"bonus_credit_eligibility":true,"tags":[]},{"id":1959568,"name":"Alexander","description":{"languages":["en"]},"status":"fundraising","funded_amount":0,"basket_amount":0,"image":{"id":3483127,"template_id":1},"activity":"Furniture Making","sector":"Manufacturing","use":"to buy more wood and tools to work better.","location":{"country_code":"CO","country":"Colombia","town":"Medell\u00edn","geo":{"level":"town","pairs":"6.244203 -75.581212","type":"point"}},"partner_id":177,"posted_date":"2020-04-15T23:30:10Z","planned_expiration_date":"2020-05-30T23:30:10Z","loan_amount":525,"borrower_count":1,"lender_count":0,"bonus_credit_eligibility":false,"tags":[{"name":"user_favorite","id":"4"}]},{"id":1959540,"name":"Euveline","description":{"languages":["fr","en"]},"status":"fundraising","funded_amount":0,"basket_amount":0,"image":{"id":3482454,"template_id":1},"activity":"Used Clothing","sector":"Clothing","use":"to increase her stock of merchandise.","location":{"country_code":"HT","country":"Haiti","town":"Delmas","geo":{"level":"town","pairs":"18.543361 -72.305212","type":"point"}},"partner_id":442,"posted_date":"2020-04-15T23:20:24Z","planned_expiration_date":"2020-05-30T23:20:24Z","loan_amount":225,"borrower_count":1,"lender_count":0,"bonus_credit_eligibility":false,"tags":[{"name":"user_favorite","id":"4"}]},{"id":1959525,"name":"Emilio","description":{"languages":["fr","en"]},"status":"fundraising","funded_amount":0,"basket_amount":0,"image":{"id":2931832,"template_id":1},"activity":"Grocery Store","sector":"Food","use":"to increase his stock of carbonated beverages.","location":{"country_code":"HT","country":"Haiti","town":"Delmas","geo":{"level":"town","pairs":"18.543361 -72.305212","type":"point"}},"partner_id":442,"posted_date":"2020-04-15T23:20:10Z","planned_expiration_date":"2020-05-30T23:20:10Z","loan_amount":325,"borrower_count":1,"lender_count":0,"bonus_credit_eligibility":false,"tags":[{"name":"user_favorite","id":"4"}]},{"id":1959510,"name":"Marie Erina","description":{"languages":["fr","en"]},"status":"fundraising","funded_amount":0,"basket_amount":0,"image":{"id":3482122,"template_id":1},"activity":"Fruits & Vegetables","sector":"Food","use":"to increase her stock of tomatoes and mirliton squash.","location":{"country_code":"HT","country":"Haiti","town":"Cabaret","geo":{"level":"town","pairs":"18.733857 -72.416938","type":"point"}},"partner_id":442,"posted_date":"2020-04-15T23:00:09Z","planned_expiration_date":"2020-05-30T23:00:09Z","loan_amount":275,"borrower_count":1,"lender_count":0,"bonus_credit_eligibility":false,"tags":[]},{"id":1959509,"name":"Marie Adelcia","description":{"languages":["fr","en"]},"status":"fundraising","funded_amount":0,"basket_amount":0,"image":{"id":3482120,"template_id":1},"activity":"Food Market","sector":"Food","use":"to buy bags of corn.","location":{"country_code":"HT","country":"Haiti","town":"Cabaret","geo":{"level":"town","pairs":"18.733857 -72.416938","type":"point"}},"partner_id":442,"posted_date":"2020-04-15T22:50:24Z","planned_expiration_date":"2020-05-30T22:50:24Z","loan_amount":325,"borrower_count":1,"lender_count":0,"bonus_credit_eligibility":false,"tags":[{"name":"user_favorite","id":"4"}]}]}